2023-05-19 20:11:36,108 INFO    MainThread:75253 [wandb_setup.py:_flush():76] Current SDK version is 0.15.2
2023-05-19 20:11:36,108 INFO    MainThread:75253 [wandb_setup.py:_flush():76] Configure stats pid to 75253
2023-05-19 20:11:36,108 INFO    MainThread:75253 [wandb_setup.py:_flush():76] Loading settings from /Users/petraivascu/.config/wandb/settings
2023-05-19 20:11:36,108 INFO    MainThread:75253 [wandb_setup.py:_flush():76] Loading settings from /Users/petraivascu/Documents/projects/personal/mini-project/services/training-job/training_job/wandb/settings
2023-05-19 20:11:36,108 INFO    MainThread:75253 [wandb_setup.py:_flush():76] Loading settings from environment variables: {}
2023-05-19 20:11:36,108 INFO    MainThread:75253 [wandb_setup.py:_flush():76] Applying setup settings: {'_disable_service': False}
2023-05-19 20:11:36,108 INFO    MainThread:75253 [wandb_setup.py:_flush():76] Inferring run settings from compute environment: {'program_relpath': 'consumer.py', 'program': '/Users/petraivascu/Documents/projects/personal/mini-project/services/training-job/training_job/consumer.py'}
2023-05-19 20:11:36,108 INFO    MainThread:75253 [wandb_init.py:_log_setup():507] Logging user logs to /Users/petraivascu/Documents/projects/personal/mini-project/services/training-job/training_job/wandb/offline-run-20230519_201136-3vh2h0fj/logs/debug.log
2023-05-19 20:11:36,108 INFO    MainThread:75253 [wandb_init.py:_log_setup():508] Logging internal logs to /Users/petraivascu/Documents/projects/personal/mini-project/services/training-job/training_job/wandb/offline-run-20230519_201136-3vh2h0fj/logs/debug-internal.log
2023-05-19 20:11:36,108 INFO    MainThread:75253 [wandb_init.py:init():547] calling init triggers
2023-05-19 20:11:36,108 INFO    MainThread:75253 [wandb_init.py:init():554] wandb.init called with sweep_config: {}
config: {}
2023-05-19 20:11:36,109 INFO    MainThread:75253 [wandb_init.py:init():596] starting backend
2023-05-19 20:11:36,109 INFO    MainThread:75253 [wandb_init.py:init():600] setting up manager
2023-05-19 20:11:36,110 INFO    MainThread:75253 [backend.py:_multiprocessing_setup():106] multiprocessing start_methods=spawn,fork,forkserver, using: spawn
2023-05-19 20:11:36,112 INFO    MainThread:75253 [wandb_init.py:init():606] backend started and connected
2023-05-19 20:11:36,115 INFO    MainThread:75253 [wandb_init.py:init():700] updated telemetry
2023-05-19 20:11:36,116 INFO    MainThread:75253 [wandb_init.py:init():787] starting run threads in backend
2023-05-19 20:11:36,133 INFO    MainThread:75253 [wandb_run.py:_console_start():2158] atexit reg
2023-05-19 20:11:36,133 INFO    MainThread:75253 [wandb_run.py:_redirect():2013] redirect: SettingsConsole.WRAP_RAW
2023-05-19 20:11:36,133 INFO    MainThread:75253 [wandb_run.py:_redirect():2078] Wrapping output streams.
2023-05-19 20:11:36,133 INFO    MainThread:75253 [wandb_run.py:_redirect():2103] Redirects installed.
2023-05-19 20:11:36,133 INFO    MainThread:75253 [wandb_init.py:init():829] run started, returning control to user process
2023-05-19 20:11:36,134 INFO    MainThread:75253 [wandb_run.py:_config_callback():1286] config_cb None None {'seed': 1, 'log_interval': 10, 'batch_size': 128, 'epochs': 1, 'learning_rate': 0.001, 'dataset_version': 'tenyks_ml_eng_task_907efe16-c40f-11ed-afa1-0242ac120002', 'model_artifact_name': 'HeroNet_test', 'model_location': '/Users/petraivascu/Documents/projects/personal/artifacts/', 'dataset_location': '/Users/petraivascu/Downloads/', 'num_classes': 2}
2023-05-19 20:13:05,043 WARNING MsgRouterThr:75253 [router.py:message_loop():77] message_loop has been closed
