{
    "os": "macOS-13.3.1-arm64-arm-64bit",
    "python": "3.9.6",
    "heartbeatAt": "2023-05-19T21:17:19.982153",
    "startedAt": "2023-05-19T21:17:19.959425",
    "docker": null,
    "cuda": null,
    "args": [],
    "state": "running",
    "program": "/Users/petraivascu/Documents/projects/personal/mini-project/services/training-job/training_job/consumer.py",
    "codePath": "consumer.py",
    "host": "Petras-MacBook-Pro.local",
    "username": "petraivascu",
    "executable": "/Users/petraivascu/Documents/projects/personal/mini-project/services/training-job/.venv/bin/python",
    "cpu_count": 10,
    "cpu_count_logical": 10,
    "disk": {
        "total": 460.4317207336426,
        "used": 8.456645965576172
    },
    "gpuapple": {
        "type": "arm",
        "vendor": "Apple"
    },
    "memory": {
        "total": 16.0
    }
}
